-------------------------------------------------------------------------------
Test set: TestGoogle
-------------------------------------------------------------------------------
Tests run: 1, Failures: 0, Errors: 0, Skipped: 0, Time elapsed: 7.791 sec
