<?xml version="1.0" encoding="UTF-8"?>
<!DOCTYPE suite SYSTEM "https://testng.org/testng-1.0.dtd">
<suite name="Failed suite [TestGoogle]" verbose="0">
  <test thread-count="5" name="Command line test(failed)" verbose="0">
    <classes>
      <class name="TestGoogle">
        <methods>
          <include name="testGoogle"/>
        </methods>
      </class> <!-- TestGoogle -->
    </classes>
  </test> <!-- Command line test(failed) -->
</suite> <!-- Failed suite [TestGoogle] -->
